<svg version="1.2" baseProfile="tiny-ps" xmlns="http://www.w3.org/2000/svg" viewBox="0 0 21 21" width="21" height="21">
	<title>pop_up</title>
	<style>
		tspan { white-space:pre }
		.shp0 { fill: #ffffff;stroke: #000000;stroke-width: 3 } 
	</style>
	<g id="pop_up">
		<g id="pagination">
			<path id="Ellipse 2" class="shp0" d="M10.5 0C16.3 0 21 4.7 21 10.5C21 16.3 16.3 21 10.5 21C4.7 21 0 16.3 0 10.5C0 4.7 4.7 0 10.5 0Z" />
		</g>
	</g>
</svg>